<svg width="34" height="48" viewBox="0 0 34 48" fill="none" xmlns="http://www.w3.org/2000/svg">
<path d="M0 0H34V43.3C34 45.8957 31.8957 48 29.3 48H0V0Z" fill="#EF4123"/>
<rect x="6" y="21" width="22" height="6" rx="3" fill="#EFF5F5"/>
</svg>
